// Jest Snapshot v1, https://goo.gl/fbAQLP

exports[`MyBankAccount MyBankAccount UI 1`] = `
<div class="container">
  <div class="row">
    <div class="col col-12">
      <div class="v-card v-sheet theme--light sheet">
        <div class="v-card__title sheet darken-1">
          <div class="v-toolbar__title mr-4">حساب های بانکی من</div>
        </div>
        <hr role="separator" aria-orientation="horizontal" class="v-divider theme--light">
        <div class="v-card__text pa-0">
          <div class="v-data-table elevation-1 t-strip  theme--light">
            <div class="v-data-table__wrapper">
              <table>
                <colgroup></colgroup>
                <thead class="v-data-table-header">
                  <tr></tr>
                </thead>
                <tbody>
                  <tr class="v-data-table__empty-wrapper">
                    <td colspan="0">حسابی وجود ندارد</td>
                  </tr>
                </tbody>
              </table>
            </div>
          </div>
        </div>
      </div>
    </div>
  </div>
</div>
`;
