// Jest Snapshot v1, https://goo.gl/fbAQLP

exports[`withdraw Records withdraw Records UI 1`] = `
<div class="container">
  <div class="row">
    <div class="col col-12">
      <div class="v-card v-sheet theme--light sheet">
        <div class="v-card__title sheet darken-1">
          <div class="v-toolbar__title mr-4">سوابق برداشت</div>
        </div>
        <hr role="separator" aria-orientation="horizontal" class="v-divider theme--light">
        <div class="v-card__text pa-0">
          <div class="v-data-table elevation-1 t-strip theme--light">
            <div class="v-data-table__wrapper">
              <table>
                <colgroup></colgroup>
                <thead class="v-data-table-header">
                  <tr></tr>
                </thead>
                <tbody>
                  <tr class="v-data-table__empty-wrapper">
                    <td colspan="0">سابقه ی برداشتی وجود ندارد</td>
                  </tr>
                </tbody>
              </table>
            </div>
          </div>
          <div class="text-center pt-2">
            <nav role="navigation" aria-label="Pagination Navigation">
              <ul class="v-pagination theme--light">
                <li><button disabled="disabled" type="button" aria-label="Previous page" class="v-pagination__navigation v-pagination__navigation--disabled"><i aria-hidden="true" class="v-icon notranslate mdi mdi-chevron-left theme--light"></i></button></li>
                <li><button type="button" aria-current="true" aria-label="Current Page, Page 1" class="v-pagination__item v-pagination__item--active aqua">1</button></li>
                <li><button type="button" aria-label="Goto Page 2" class="v-pagination__item">2</button></li>
                <li><button type="button" aria-label="Next page" class="v-pagination__navigation"><i aria-hidden="true" class="v-icon notranslate mdi mdi-chevron-right theme--light"></i></button></li>
              </ul>
            </nav>
          </div>
        </div>
      </div>
    </div>
  </div>
</div>
`;
